digraph G {
  H;
  C;
  J;
  A;
  F;
  B[style=invis];
  N;
  D;
  G;
  M;
  Z[style=invis];
  H -> C;
  H -> J;
  C -> A;
  C -> F;
  J -> B[style=invis];
  J -> N;
  F -> D;
  F -> G;
  N -> M;
  N -> Z[style=invis];
}